<?xml version="1.0" encoding="UTF-8" standalone="no"?>
<OAI-PMH xmlns:xsi="http://www.w3.org/2001/XMLSchema-instance"
         xsi:schemaLocation="http://www.openarchives.org/OAI/2.0/ http://www.openarchives.org/OAI/2.0/OAI-PMH.xsd"
         xmlns="http://www.openarchives.org/OAI/2.0/">
  <responseDate>2011-07-06T11:18:55Z</responseDate>
  <request metadataPrefix="matterhorn" verb="ListRecords">http://localhost:8080/oaipmh</request>
  <ListRecords>
    <record>
      <header>
        <identifier>548adbd3-13ef-4189-9805-a3d83b4dc2a2</identifier>
        <datestamp>2011-07-04</datestamp>
      </header>
      <metadata>
        <matterhorn:mediapackage xmlns:matterhorn="http://www.opencastproject.org/oai/matterhorn">
          <ns2:mediapackage xmlns:ns2="http://mediapackage.opencastproject.org" duration="69080"
                            id="548adbd3-13ef-4189-9805-a3d83b4dc2a2" start="2011-07-03T22:00:00Z">
            <title xmlns="">Freunde</title>
            <creators xmlns="">
              <creator>ced</creator>
            </creators>
            <media xmlns="">
              <track id="track-6" ref="track:a980b71a-f15a-42b5-84cc-6edce37e8b9e" type="presenter/delivery">
                <mimetype>video/x-flv</mimetype>
                <tags>
                  <tag>engage</tag>
                  <tag>publish</tag>
                </tags>
                <url>
                  http://localhost:8080/static/548adbd3-13ef-4189-9805-a3d83b4dc2a2/a980b71a-f15a-42b5-84cc-6edce37e8b9e/Freunde.flv
                </url>
                <checksum type="md5">687ec5bc2827adba3d7bfbb389baea8f</checksum>
                <duration>67133</duration>
                <video id="video-1">
                  <device/>
                  <encoder type="H.263"/>
                  <bitrate>500000.0</bitrate>
                  <framerate>15.0</framerate>
                  <resolution>720x540</resolution>
                </video>
              </track>
              <track id="track-7" ref="track:cf87c81c-7e83-4444-864e-b19fa6f93c9f" type="presenter/delivery">
                <mimetype>video/avi</mimetype>
                <tags>
                  <tag>atom</tag>
                  <tag>publish</tag>
                  <tag>rss</tag>
                </tags>
                <url>
                  http://localhost:8080/static/548adbd3-13ef-4189-9805-a3d83b4dc2a2/cf87c81c-7e83-4444-864e-b19fa6f93c9f/Freunde.avi
                </url>
                <checksum type="md5">91f263d2bbe99c56599da0da7a0e79bb</checksum>
                <duration>69080</duration>
                <video id="video-1">
                  <device/>
                  <encoder type="MPEG-4 Visual"/>
                  <bitrate>181200.0</bitrate>
                  <framerate>25.0</framerate>
                  <resolution>320x240</resolution>
                  <scantype type="Progressive"/>
                </video>
              </track>
            </media>
            <metadata xmlns="">
              <catalog id="catalog-2" ref="catalog:40b2ec10-c0ba-44c0-a593-6bf2a5df715b" type="dublincore/episode">
                <mimetype>text/xml</mimetype>
                <tags>
                  <tag>publish</tag>
                </tags>
                <url>
                  http://localhost:8080/static/548adbd3-13ef-4189-9805-a3d83b4dc2a2/40b2ec10-c0ba-44c0-a593-6bf2a5df715b/dublincore.xml
                </url>
              </catalog>
            </metadata>
            <attachments xmlns="">
              <attachment id="attachment-4" ref="attachment:attachment-1" type="presenter/player+preview">
                <mimetype>image/jpeg</mimetype>
                <tags>
                  <tag>engage</tag>
                  <tag>publish</tag>
                </tags>
                <url>http://localhost:8080/static/548adbd3-13ef-4189-9805-a3d83b4dc2a2/attachment-1/Freunde.jpg</url>
              </attachment>
              <attachment id="attachment-5" ref="attachment:attachment-2" type="presenter/search+preview">
                <mimetype>image/jpeg</mimetype>
                <tags>
                  <tag>engage</tag>
                  <tag>publish</tag>
                </tags>
                <url>http://localhost:8080/static/548adbd3-13ef-4189-9805-a3d83b4dc2a2/attachment-2/Freunde.jpg</url>
              </attachment>
              <attachment id="attachment-6" ref="attachment:attachment-3" type="presenter/feed+preview">
                <mimetype>image/jpeg</mimetype>
                <tags>
                  <tag>atom</tag>
                  <tag>publish</tag>
                  <tag>rss</tag>
                </tags>
                <url>http://localhost:8080/static/548adbd3-13ef-4189-9805-a3d83b4dc2a2/attachment-3/Freunde.jpg</url>
              </attachment>
            </attachments>
          </ns2:mediapackage>
        </matterhorn:mediapackage>
      </metadata>
    </record>
    <resumptionToken completeListSize="4" cursor="0">eb4e1fab28f67afdaeafa5f7d59260dd</resumptionToken>
  </ListRecords>
</OAI-PMH>
